…
```r
library(climproxyrecords)
library(dplyr)
```

```
## Warning: package 'dplyr' was built under R version 3.6.1
```

```r
marcott.proxies
```

```
## # A tibble: 13,134 x 13
##    Number ID    Core.location Proxy.type Proxy.value Published.tempe~
##     <int> <chr> <chr>         <fct>            <dbl>            <dbl>
##  1      1 GeoB~ GeoB5844-2    Uk'37            0.950             26.8
##  2      1 GeoB~ GeoB5844-2    Uk'37            0.950             26.8
##  3      1 GeoB~ GeoB5844-2    Uk'37            0.954             26.9
##  4      1 GeoB~ GeoB5844-2    Uk'37            0.937             26.4
##  5      1 GeoB~ GeoB5844-2    Uk'37            0.94              26.5
##  6      1 GeoB~ GeoB5844-2    Uk'37            0.957             27  
##  7      1 GeoB~ GeoB5844-2    Uk'37            0.950             26.8
##  8      1 GeoB~ GeoB5844-2    Uk'37            0.937             26.4
##  9      1 GeoB~ GeoB5844-2    Uk'37            0.937             26.4
## 10      1 GeoB~ GeoB5844-2    Uk'37            0.950             26.8
## # ... with 13,124 more rows, and 7 more variables: Proxy.depth.type <chr>,
## #   Proxy.depth <dbl>, Published.age <dbl>, Age.model.error <dbl>,
## #   depth.flag <lgl>, Age.type <chr>, Age <dbl>
```

## Subsetting

For each proxy compilation, all records are stored in a single dataframe. To access subsets of proxies use either base R's subsetting 


```r
subset(marcott.proxies, Proxy.type == "Uk'37")
```

```
## # A tibble: 3,222 x 13
##    Number ID    Core.location Proxy.type Proxy.value Published.tempe~
##     <int> <chr> <chr>         <fct>            <dbl>            <dbl>
##  1      1 GeoB~ GeoB5844-2    Uk'37            0.950             26.8
##  2      1 GeoB~ GeoB5844-2    Uk'37            0.950             26.8
##  3      1 GeoB~ GeoB5844-2    Uk'37            0.954             26.9
##  4      1 GeoB~ GeoB5844-2    Uk'37            0.937             26.4
##  5      1 GeoB~ GeoB5844-2    Uk'37            0.94              26.5
##  6      1 GeoB~ GeoB5844-2    Uk'37            0.957             27  
##  7      1 GeoB~ GeoB5844-2    Uk'37            0.950             26.8
##  8      1 GeoB~ GeoB5844-2    Uk'37            0.937             26.4
##  9      1 GeoB~ GeoB5844-2    Uk'37            0.937             26.4
## 10      1 GeoB~ GeoB5844-2    Uk'37            0.950             26.8
## # ... with 3,212 more rows, and 7 more variables: Proxy.depth.type <chr>,
## #   Proxy.depth <dbl>, Published.age <dbl>, Age.model.error <dbl>,
## #   depth.flag <lgl>, Age.type <chr>, Age <dbl>
```

or `dplyr::filter`


```r
marcott.proxies %>% 
  filter(Proxy.type == "Uk'37")
```

```
## # A tibble: 3,222 x 13
##    Number ID    Core.location Proxy.type Proxy.value Published.tempe~
##     <int> <chr> <chr>         <fct>            <dbl>            <dbl>
##  1      1 GeoB~ GeoB5844-2    Uk'37            0.950             26.8
##  2      1 GeoB~ GeoB5844-2    Uk'37            0.950             26.8
##  3      1 GeoB~ GeoB5844-2    Uk'37            0.954             26.9
##  4      1 GeoB~ GeoB5844-2    Uk'37            0.937             26.4
##  5      1 GeoB~ GeoB5844-2    Uk'37            0.94              26.5
##  6      1 GeoB~ GeoB5844-2    Uk'37            0.957             27  
##  7      1 GeoB~ GeoB5844-2    Uk'37            0.950             26.8
##  8      1 GeoB~ GeoB5844-2    Uk'37            0.937             26.4
##  9      1 GeoB~ GeoB5844-2    Uk'37            0.937             26.4
## 10      1 GeoB~ GeoB5844-2    Uk'37            0.950             26.8
## # ... with 3,212 more rows, and 7 more variables: Proxy.depth.type <chr>,
## #   Proxy.depth <dbl>, Published.age <dbl>, Age.model.error <dbl>,
## #   depth.flag <lgl>, Age.type <chr>, Age <dbl>
```
…
## Get metadata

To get additional metadata for the proxies, look at corresponding `metadata` dataframe and reference/join by `ID`


```r
dplyr::left_join(marcott.proxies, marcott.metadata)
```

```
## Joining, by = c("Number", "Core.location", "Proxy.type")
```

```
## # A tibble: 13,134 x 22
##    Number ID    Core.location Proxy.type Proxy.value Published.tempe~
##     <int> <chr> <chr>         <fct>            <dbl>            <dbl>
##  1      1 GeoB~ GeoB5844-2    Uk'37            0.950             26.8
##  2      1 GeoB~ GeoB5844-2    Uk'37            0.950             26.8
##  3      1 GeoB~ GeoB5844-2    Uk'37            0.954             26.9
##  4      1 GeoB~ GeoB5844-2    Uk'37            0.937             26.4
##  5      1 GeoB~ GeoB5844-2    Uk'37            0.94              26.5
##  6      1 GeoB~ GeoB5844-2    Uk'37            0.957             27  
##  7      1 GeoB~ GeoB5844-2    Uk'37            0.950             26.8
##  8      1 GeoB~ GeoB5844-2    Uk'37            0.937             26.4
##  9      1 GeoB~ GeoB5844-2    Uk'37            0.937             26.4
## 10      1 GeoB~ GeoB5844-2    Uk'37            0.950             26.8
## # ... with 13,124 more rows, and 16 more variables:
## #   Proxy.depth.type <chr>, Proxy.depth <dbl>, Published.age <dbl>,
## #   Age.model.error <dbl>, depth.flag <lgl>, Age.type <chr>, Age <dbl>,
## #   Proxy.type.detail <chr>, Temperature.cali.ref <chr>, Lat <dbl>,
## #   Lon <dbl>, Elevation <int>, Resolution <int>, Pub.seas.interp <chr>,
## #   Reference <chr>, Seasonality.comment <chr>
```
…
